<?xml version="1.0" encoding="utf-8"?>
<!-- Generator: Adobe Illustrator 15.1.0, SVG Export Plug-In . SVG Version: 6.00 Build 0)  -->
<!DOCTYPE svg PUBLIC "-//W3C//DTD SVG 1.1//EN" "http://www.w3.org/Graphics/SVG/1.1/DTD/svg11.dtd">
<svg version="1.1" xmlns="http://www.w3.org/2000/svg" xmlns:xlink="http://www.w3.org/1999/xlink" x="0px" y="0px" width="80px"
	 height="80px" viewBox="0 0 80 80" enable-background="new 0 0 80 80" xml:space="preserve">
<g id="Livello_2">
	<rect fill="#241F20" width="79.994" height="79.994"/>
</g>
<g id="Livello_4">
	<g>
		<g id="g19135_1_" transform="matrix(0.47041875,0,0,0.47041529,494.82868,424.96033)" opacity="0.24">
			<path id="rect18315_1_" fill="#999999" d="M-1029.899-886.368h10.961c2.752,0,4.984,2.233,4.984,4.984v10.962
				c0,2.752-2.233,4.984-4.984,4.984h-10.961c-2.753,0-4.985-2.233-4.985-4.984v-10.962
				C-1034.884-884.135-1032.651-886.368-1029.899-886.368z"/>
			<path id="rect18331_1_" fill="#999999" d="M-972.339-857.588h10.961c2.753,0,4.984,2.234,4.984,4.985v10.961
				c0,2.752-2.232,4.984-4.984,4.984h-10.961c-2.752,0-4.985-2.233-4.985-4.984v-10.961
				C-977.324-855.354-975.091-857.588-972.339-857.588z"/>
			<path id="rect18333_1_" fill="#999999" d="M-943.558-857.588h10.961c2.751,0,4.984,2.234,4.984,4.985v10.961
				c0,2.752-2.234,4.984-4.984,4.984h-10.961c-2.753,0-4.986-2.233-4.986-4.984v-10.961
				C-948.545-855.354-946.311-857.588-943.558-857.588z"/>
			<path id="rect18335_1_" fill="#999999" d="M-914.779-857.588h10.961c2.753,0,4.984,2.234,4.984,4.985v10.961
				c0,2.752-2.232,4.984-4.984,4.984h-10.961c-2.751,0-4.984-2.233-4.984-4.984v-10.961
				C-919.764-855.354-917.53-857.588-914.779-857.588z"/>
			<path id="rect18337_1_" fill="#999999" d="M-1029.899-828.808h10.961c2.752,0,4.984,2.234,4.984,4.985v10.961
				c0,2.753-2.233,4.984-4.984,4.984h-10.961c-2.753,0-4.985-2.232-4.985-4.984v-10.961
				C-1034.884-826.574-1032.651-828.808-1029.899-828.808z"/>
			<path id="rect18345_1_" fill="#999999" d="M-914.779-828.808h10.961c2.753,0,4.984,2.234,4.984,4.985v10.961
				c0,2.753-2.232,4.984-4.984,4.984h-10.961c-2.751,0-4.984-2.232-4.984-4.984v-10.961
				C-919.764-826.574-917.53-828.808-914.779-828.808z"/>
			<path id="rect18347_1_" fill="#999999" d="M-1029.899-800.028h10.961c2.752,0,4.984,2.234,4.984,4.986v10.961
				c0,2.751-2.233,4.984-4.984,4.984h-10.961c-2.753,0-4.985-2.234-4.985-4.984v-10.961
				C-1034.884-797.794-1032.651-800.028-1029.899-800.028z"/>
			<path id="rect18349_1_" fill="#999999" d="M-1001.119-800.028h10.961c2.752,0,4.984,2.234,4.984,4.986v10.961
				c0,2.751-2.233,4.984-4.984,4.984h-10.961c-2.752,0-4.985-2.234-4.985-4.984v-10.961
				C-1006.104-797.794-1003.87-800.028-1001.119-800.028z"/>
			<path id="rect18351_1_" fill="#999999" d="M-972.339-800.028h10.961c2.753,0,4.984,2.234,4.984,4.986v10.961
				c0,2.751-2.232,4.984-4.984,4.984h-10.961c-2.752,0-4.985-2.234-4.985-4.984v-10.961
				C-977.324-797.794-975.091-800.028-972.339-800.028z"/>
			<path id="rect18365_1_" fill="#999999" d="M-914.779-771.247h10.961c2.753,0,4.984,2.234,4.984,4.984v10.961
				c0,2.753-2.232,4.986-4.984,4.986h-10.961c-2.751,0-4.984-2.234-4.984-4.986v-10.961
				C-919.764-769.013-917.53-771.247-914.779-771.247z"/>
		</g>
		<g id="g19147_1_" transform="matrix(0.47041875,0,0,0.47041529,494.82868,424.96033)">
			<path id="rect18317_1_" fill="#FFCC00" d="M-1001.119-886.368h10.961c2.752,0,4.984,2.233,4.984,4.984v10.962
				c0,2.752-2.233,4.984-4.984,4.984h-10.961c-2.752,0-4.985-2.233-4.985-4.984v-10.962
				C-1006.104-884.135-1003.87-886.368-1001.119-886.368z"/>
			<path id="rect18321_1_" fill="#66CC00" d="M-972.339-886.368h10.961c2.753,0,4.984,2.233,4.984,4.984v10.962
				c0,2.752-2.232,4.984-4.984,4.984h-10.961c-2.752,0-4.985-2.233-4.985-4.984v-10.962
				C-977.324-884.135-975.091-886.368-972.339-886.368z"/>
			<path id="rect18323_1_" fill="#66CCCC" d="M-943.558-886.368h10.961c2.751,0,4.984,2.233,4.984,4.984v10.962
				c0,2.752-2.234,4.984-4.984,4.984h-10.961c-2.753,0-4.986-2.233-4.986-4.984v-10.962
				C-948.545-884.135-946.311-886.368-943.558-886.368z"/>
			<path id="rect18325_1_" fill="#FF6699" d="M-914.779-886.368h10.961c2.753,0,4.984,2.233,4.984,4.984v10.962
				c0,2.752-2.232,4.984-4.984,4.984h-10.961c-2.751,0-4.984-2.233-4.984-4.984v-10.962
				C-919.764-884.135-917.53-886.368-914.779-886.368z"/>
			<path id="rect18327_1_" fill="#6699CC" d="M-1029.899-857.588h10.961c2.752,0,4.984,2.234,4.984,4.985v10.961
				c0,2.752-2.233,4.984-4.984,4.984h-10.961c-2.753,0-4.985-2.233-4.985-4.984v-10.961
				C-1034.884-855.354-1032.651-857.588-1029.899-857.588z"/>
			<path id="rect18329_1_" fill="#FF0000" d="M-1001.119-857.588h10.961c2.752,0,4.984,2.234,4.984,4.985v10.961
				c0,2.752-2.233,4.984-4.984,4.984h-10.961c-2.752,0-4.985-2.233-4.985-4.984v-10.961
				C-1006.104-855.354-1003.87-857.588-1001.119-857.588z"/>
			<path id="rect18339_1_" fill="#9966FF" d="M-1001.119-828.808h10.961c2.752,0,4.984,2.234,4.984,4.985v10.961
				c0,2.753-2.233,4.984-4.984,4.984h-10.961c-2.752,0-4.985-2.232-4.985-4.984v-10.961
				C-1006.104-826.574-1003.87-828.808-1001.119-828.808z"/>
			<path id="rect18341_1_" fill="#FFCC00" d="M-972.339-828.808h10.961c2.753,0,4.984,2.234,4.984,4.985v10.961
				c0,2.753-2.232,4.984-4.984,4.984h-10.961c-2.752,0-4.985-2.232-4.985-4.984v-10.961
				C-977.324-826.574-975.091-828.808-972.339-828.808z"/>
			<path id="rect18343_1_" fill="#FFFF66" d="M-943.558-828.808h10.961c2.751,0,4.984,2.234,4.984,4.985v10.961
				c0,2.753-2.234,4.984-4.984,4.984h-10.961c-2.753,0-4.986-2.232-4.986-4.984v-10.961
				C-948.545-826.574-946.311-828.808-943.558-828.808z"/>
			<path id="rect18353_1_" fill="#FF9966" d="M-943.558-800.028h10.961c2.751,0,4.984,2.234,4.984,4.986v10.961
				c0,2.751-2.234,4.984-4.984,4.984h-10.961c-2.753,0-4.986-2.234-4.986-4.984v-10.961
				C-948.545-797.794-946.311-800.028-943.558-800.028z"/>
			<path id="rect18355_1_" fill="#FF9900" d="M-914.779-800.028h10.961c2.753,0,4.984,2.234,4.984,4.986v10.961
				c0,2.751-2.232,4.984-4.984,4.984h-10.961c-2.751,0-4.984-2.234-4.984-4.984v-10.961
				C-919.764-797.794-917.53-800.028-914.779-800.028z"/>
			<path id="rect18357_1_" fill="#66CCFF" d="M-1029.899-771.247h10.961c2.752,0,4.984,2.234,4.984,4.984v10.961
				c0,2.753-2.233,4.986-4.984,4.986h-10.961c-2.753,0-4.985-2.234-4.985-4.986v-10.961
				C-1034.884-769.013-1032.651-771.247-1029.899-771.247z"/>
			<path id="rect18359_1_" fill="#CC33CC" d="M-1001.119-771.247h10.961c2.752,0,4.984,2.234,4.984,4.984v10.961
				c0,2.753-2.233,4.986-4.984,4.986h-10.961c-2.752,0-4.985-2.234-4.985-4.986v-10.961
				C-1006.104-769.013-1003.87-771.247-1001.119-771.247z"/>
			<path id="rect18361_1_" fill="#CC99CC" d="M-972.339-771.247h10.961c2.753,0,4.984,2.234,4.984,4.984v10.961
				c0,2.753-2.232,4.986-4.984,4.986h-10.961c-2.752,0-4.985-2.234-4.985-4.986v-10.961
				C-977.324-769.013-975.091-771.247-972.339-771.247z"/>
			<path id="rect18363_1_" fill="#66FF99" d="M-943.558-771.247h10.961c2.751,0,4.984,2.234,4.984,4.984v10.961
				c0,2.753-2.234,4.986-4.984,4.986h-10.961c-2.753,0-4.986-2.234-4.986-4.986v-10.961
				C-948.545-769.013-946.311-771.247-943.558-771.247z"/>
		</g>
	</g>
</g>
<g id="svg2" sodipodi:docname="cutesoma-icon.svg" inkscape:version="0.48.1 r9760" xmlns:inkscape="http://www.inkscape.org/namespaces/inkscape" xmlns:sodipodi="http://sodipodi.sourceforge.net/DTD/sodipodi-0.dtd" xmlns:rdf="http://www.w3.org/1999/02/22-rdf-syntax-ns#" xmlns:svg="http://www.w3.org/2000/svg" xmlns:cc="http://creativecommons.org/ns#" xmlns:dc="http://purl.org/dc/elements/1.1/">
	
		<sodipodi:namedview  inkscape:zoom="2" inkscape:snap-bbox-midpoints="true" inkscape:snap-bbox-edge-midpoints="true" inkscape:bbox-paths="true" inkscape:bbox-nodes="true" inkscape:snap-bbox="true" fit-margin-bottom="0" fit-margin-right="0" fit-margin-top="0" inkscape:window-maximized="0" inkscape:window-y="30" inkscape:window-x="0" inkscape:window-height="968" fit-margin-left="0" inkscape:window-width="1678" inkscape:snap-global="true" showgrid="false" inkscape:current-layer="layer1" inkscape:document-units="px" inkscape:cy="-15.453728" pagecolor="#ffffff" bordercolor="#666666" id="base" borderopacity="1.0" inkscape:pageopacity="0.0" inkscape:cx="174.62561" inkscape:pageshadow="2">
		<inkscape:grid  type="xygrid" snapvisiblegridlinesonly="true" visible="true" empspacing="5" enabled="true" id="grid2996">
			</inkscape:grid>
	</sodipodi:namedview>
	<g id="g16860_1_">
	</g>
</g>
</svg>
